dates-and-times
…
We will take a random sample of dates to show some of the useful things one can do:

set.seed(2002)
dates <- sample(polls_us_election_2016$startdate, 10) |> sort()
dates
##  [1] "2016-05-31" "2016-08-08" "2016-08-19" "2016-09-22" "2016-09-27"
##  [6] "2016-10-12" "2016-10-24" "2016-10-26" "2016-10-29" "2016-10-30"

The functions year, month and day extract those values:

tibble(date = dates, 
       month = month(dates),
       day = day(dates),
       year = year(dates))
## # A tibble: 10 × 4
##   date       month   day  year
##   <date>     <dbl> <int> <dbl>
## 1 2016-05-31     5    31  2016
## 2 2016-08-08     8     8  2016
## 3 2016-08-19     8    19  2016
## 4 2016-09-22     9    22  2016
## 5 2016-09-27     9    27  2016
## # ℹ 5 more rows
…
