Introduction to Data Science - 15 String processing
…
We can then use mutate_all to apply this operation to each column, since it won’t affect the columns without commas.

It turns out that this operation is so common that readr includes the function parse_number specifically meant to remove non-numeric characters before coercing:

test_2 <- parse_number(murders_raw$population)
identical(test_1, test_2)
#> [1] TRUE

So we can obtain our desired table using:

murders_new <- murders_raw |> mutate_at(2:3, parse_number)
head(murders_new)
#> # A tibble: 6 × 4
#>   state      population total murder_rate
#>   <chr>           <dbl> <dbl>       <dbl>
#> 1 Alabama       4853875   348         7.2
#> 2 Alaska         737709    59         8  
#> 3 Arizona       6817565   309         4.5
#> 4 Arkansas      2977853   181         6.1
#> 5 California   38993940  1861         4.8
#> # ℹ 1 more row
…
However, because this is such a common task, purrr provides a shortcut. If the second argument receives an integer instead of a function, it assumes we want that entry. So the code above can be written more efficiently like this:

map(x, 1)

To force map to return a character vector instead of a list, we can use map_chr. Similarly, map_int returns integers. So to create our data frame, we can use:

dat <- tibble(map_chr(x, 1),  
              map_chr(x, 2),
              map_chr(x, 3),
              map_chr(x, 4),
              map_chr(x, 5)) |>
  mutate_all(parse_guess) |>
  setNames(col_names)
dat |> head()
#> # A tibble: 6 × 5
#>   state      abb   region population total
#>   <chr>      <chr> <chr>       <dbl> <dbl>
#> 1 Alabama    AL    South     4779736   135
#> 2 Alaska     AK    West       710231    19
#> 3 Arizona    AZ    West      6392017   232
#> 4 Arkansas   AR    South     2915918    93
#> 5 California CA    West     37253956  1257
#> # ℹ 1 more row
…
Now we are ready to get the actual data. By examining the tab object, we notice that the information is in lines 6 through 14. We can use str_split again to achieve our goal:

new_research_funding_rates <- tab[6:14] |>
  str_trim() |>
  str_split("\\s{2,}", simplify = TRUE) |>
  data.frame() |>
  setNames(the_names) |>
  mutate_at(-1, parse_number)
new_research_funding_rates |> as_tibble()
#> # A tibble: 9 × 10
#>   discipline      applications_total applications_men applications_women
#>   <chr>                        <dbl>            <dbl>              <dbl>
#> 1 Chemical scien…                122               83                 39
#> 2 Physical scien…                174              135                 39
#> 3 Physics                         76               67                  9
#> 4 Humanities                     396              230                166
#> 5 Technical scie…                251              189                 62
#> # ℹ 4 more rows
#> # ℹ 6 more variables: awards_total <dbl>, awards_men <dbl>,
#> #   awards_women <dbl>, success_rates_total <dbl>,
#> #   success_rates_men <dbl>, success_rates_women <dbl>
…
