Introduction to Data Science - 17 Text mining
…
poem <- c("Roses are red,", "Violets are blue,", 
          "Sugar is sweet,", "And so are you.")
example <- tibble(line = c(1, 2, 3, 4),
                      text = poem)
example
## # A tibble: 4 × 2
##    line text             
##   <dbl> <chr>            
## 1     1 Roses are red,   
## 2     2 Violets are blue,
## 3     3 Sugar is sweet,  
## 4     4 And so are you.
example |> unnest_tokens(word, text)
## # A tibble: 13 × 2
##    line word   
##   <dbl> <chr>  
## 1     1 roses  
## 2     1 are    
## 3     1 red    
## 4     2 violets
## 5     2 are    
## # ℹ 8 more rows
…
Now we are now ready to extract the words for all our tweets.

tweet_words <- campaign_tweets |> 
  mutate(text = str_replace_all(text, links, ""))  |>
  unnest_tokens(word, text)

And we can now answer questions such as “what are the most commonly used words?”:

tweet_words |> 
  count(word) |>
  arrange(desc(n))
## # A tibble: 6,264 × 2
##   word      n
##   <chr> <int>
## 1 the    2330
## 2 to     1413
## 3 and    1245
## 4 in     1190
## 5 i      1151
## # ℹ 6,259 more rows

It is not surprising that these are the top words. The top words are not informative. The tidytext package has a database of these commonly used words, referred to as stop words, in text mining:

stop_words
## # A tibble: 1,149 × 2
##   word  lexicon
##   <chr> <chr>  
## 1 a     SMART  
## 2 a's   SMART  
## 3 able  SMART  
## 4 about SMART  
## 5 above SMART  
## # ℹ 1,144 more rows
If we filter out rows representing stop words with filter(!word %in% stop_words$word):

tweet_words <- campaign_tweets |> 
  mutate(text = str_replace_all(text, links, ""))  |>
  unnest_tokens(word, text) |>
  filter(!word %in% stop_words$word ) 

we end up with a much more informative set of top 10 tweeted words:

tweet_words |> 
  count(word) |>
  top_n(10, n) |>
  mutate(word = reorder(word, n)) |>
  arrange(desc(n))
## # A tibble: 10 × 2
##   word                      n
##   <fct>                 <int>
## 1 trump2016               415
## 2 hillary                 407
## 3 people                  304
## 4 makeamericagreatagain   298
## 5 america                 255
## # ℹ 5 more rows
…
Now that we have all our words in a table, along with information about what device was used to compose the tweet they came from, we can start exploring which words are more common when comparing Android to iPhone.

For each word, we want to know if it is more likely to come from an Android tweet or an iPhone tweet. Odds ratio are a summary statistic useful for quantifying these differences. .For each device and a given word, let’s call it y, we compute the odds or the ratio between the proportion of words that are y and not y and compute the ratio of those odds. Here we will have many proportions that are 0, so we use the 0.5 correction. You can learn more about odds ratio in an statistics or epidemiology textbook.

android_iphone_or <- tweet_words |>
  count(word, source) |>
  pivot_wider(names_from = "source", values_from = "n", values_fill = 0) |>
  mutate(or = (Android + 0.5) / (sum(Android) - Android + 0.5) / 
           ( (iPhone + 0.5) / (sum(iPhone) - iPhone + 0.5)))

Here are the highest odds ratios for Android

android_iphone_or |> arrange(desc(or))
## # A tibble: 5,607 × 4
##   word  Android iPhone    or
##   <chr>   <int>  <int> <dbl>
## 1 a.m        65      0 113. 
## 2 p.m        39      0  68.0
## 3 mails      22      0  38.7
## 4 poor       13      0  23.2
## 5 t.v        13      0  23.2
## # ℹ 5,602 more rows

and the top for iPhone:

android_iphone_or |> arrange(or)
## # A tibble: 5,607 × 4
##   word                  Android iPhone      or
##   <chr>                   <int>  <int>   <dbl>
## 1 makeamericagreatagain       0    298 0.00141
## 2 americafirst                0     71 0.00598
## 3 draintheswamp               0     63 0.00673
## 4 trump2016                   3    412 0.00707
## 5 votetrump                   0     56 0.00757
## # ℹ 5,602 more rows

Given that several of these words are overall low frequency words, we can impose a filter based on the total frequency like this:

android_iphone_or |> filter(Android+iPhone > 100) |>
  arrange(desc(or))
## # A tibble: 30 × 4
##   word        Android iPhone    or
##   <chr>         <int>  <int> <dbl>
## 1 bad             104     26  3.40
## 2 crooked         156     49  2.73
## 3 cnn             116     37  2.68
## 4 ted              86     28  2.62
## 5 interviewed      76     25  2.59
## # ℹ 25 more rows

android_iphone_or |> filter(Android+iPhone > 100) |>
  arrange(or)
## # A tibble: 30 × 4
##   word                  Android iPhone      or
##   <chr>                   <int>  <int>   <dbl>
## 1 makeamericagreatagain       0    298 0.00141
## 2 trump2016                   3    412 0.00707
## 3 join                        1    157 0.00809
## 4 tomorrow                   24    101 0.206  
## 5 vote                       46     67 0.591  
## # ℹ 25 more rows
…
library(tidytext)
library(textdata)

The bing lexicon divides words into positive and negative sentiments. We can see this using the tidytext function get_sentiments:

get_sentiments("bing")

The AFINN lexicon assigns a score between -5 and 5, with -5 the most negative and 5 the most positive. Note that this lexicon needs to be downloaded the first time you call the function get_sentiment:

get_sentiments("afinn")

The loughran and nrc lexicons provide several different sentiments. Note that these also have to be downloaded the first time you use them.

get_sentiments("loughran") |> count(sentiment)
## # A tibble: 6 × 2
##   sentiment        n
##   <chr>        <int>
## 1 constraining   184
## 2 litigious      904
## 3 negative      2355
## 4 positive       354
## 5 superfluous     56
## # ℹ 1 more row

get_sentiments("nrc") |> count(sentiment)
## # A tibble: 10 × 2
##   sentiment        n
##   <chr>        <int>
## 1 anger         1245
## 2 anticipation   837
## 3 disgust       1056
## 4 fear          1474
## 5 joy            687
## # ℹ 5 more rows
…
Now we are ready to perform a quantitative analysis comparing Android and iPhone by comparing the sentiments of the tweets posted from each device. Here we could perform a tweet-by-tweet analysis, assigning a sentiment to each tweet. However, this will be challenging since each tweet will have several sentiments attached to it, one for each word appearing in the lexicon. For illustrative purposes, we will perform a much simpler analysis: we will count and compare the frequencies of each sentiment appearing in each device.

sentiment_counts <- tweet_words |>
  left_join(nrc, by = "word", relationship = "many-to-many") |>
  count(source, sentiment) |>
  pivot_wider(names_from = "source", values_from = "n") |>
  mutate(sentiment = replace_na(sentiment, replace = "none"))
sentiment_counts
## # A tibble: 11 × 3
##   sentiment    Android iPhone
##   <chr>          <int>  <int>
## 1 anger            962    527
## 2 anticipation     917    707
## 3 disgust          639    314
## 4 fear             799    486
## 5 joy              695    536
## # ℹ 6 more rows

For each sentiment, we can compute the odds of being in the device: proportion of words with sentiment versus proportion of words without, and then compute the odds ratio comparing the two devices.

sentiment_counts |>
  mutate(Android = Android / (sum(Android) - Android) , 
         iPhone = iPhone / (sum(iPhone) - iPhone), 
         or = Android/iPhone) |>
  arrange(desc(or))
## # A tibble: 11 × 4
##   sentiment Android iPhone    or
##   <chr>       <dbl>  <dbl> <dbl>
## 1 disgust    0.0299 0.0181  1.65
## 2 anger      0.0457 0.0307  1.49
## 3 negative   0.0814 0.0556  1.46
## 4 sadness    0.0427 0.0300  1.42
## 5 fear       0.0377 0.0283  1.33
## # ℹ 6 more rows

So we do see some differences and the order is interesting: the largest three sentiments are disgust, anger, and negative! But are these differences just due to chance? How does this compare if we are just assigning sentiments at random? To answer this question we can compute, for each sentiment, an odds ratio and a confidence interval. We will add the two values we need to form a two-by-two table and the odds ratio:

library(broom)
log_or <- sentiment_counts |>
  mutate(log_or = log((Android / (sum(Android) - Android)) / 
      (iPhone / (sum(iPhone) - iPhone))),
          se = sqrt(1/Android + 1/(sum(Android) - Android) + 
                      1/iPhone + 1/(sum(iPhone) - iPhone)),
          conf.low = log_or - qnorm(0.975)*se,
          conf.high = log_or + qnorm(0.975)*se) |>
  arrange(desc(log_or))
  
log_or
## # A tibble: 11 × 7
##   sentiment Android iPhone log_or     se conf.low conf.high
##   <chr>       <int>  <int>  <dbl>  <dbl>    <dbl>     <dbl>
## 1 disgust       639    314  0.502 0.0697    0.366     0.639
## 2 anger         962    527  0.397 0.0552    0.288     0.505
## 3 negative     1657    931  0.381 0.0423    0.298     0.464
## 4 sadness       901    514  0.354 0.0562    0.244     0.464
## 5 fear          799    486  0.287 0.0584    0.172     0.401
## # ℹ 6 more rows
…
We see that the disgust, anger, negative, sadness, and fear sentiments are associated with the Android in a way that is hard to explain by chance alone. Words not associated to a sentiment were strongly associated with the iPhone source, which is in agreement with the original claim about hyperbolic tweets.

If we are interested in exploring which specific words are driving these differences, we can refer back to our android_iphone_or object:

android_iphone_or |> inner_join(nrc) |>
  filter(sentiment == "disgust" & Android + iPhone > 10) |>
  arrange(desc(or))
## Joining with `by = join_by(word)`
## # A tibble: 20 × 5
##   word    Android iPhone    or sentiment
##   <chr>     <int>  <int> <dbl> <chr>    
## 1 mess         15      2  5.33 disgust  
## 2 finally      12      2  4.30 disgust  
## 3 unfair       12      2  4.30 disgust  
## 4 bad         104     26  3.40 disgust  
## 5 lie          13      3  3.32 disgust  
## # ℹ 15 more rows
…
