web-scraping
…
This is clearly not a tidy dataset, not even a data frame. In the code above, you can definitely see a pattern and writing code to extract just the data is very doable. In fact, rvest includes a function just for converting HTML tables into data frames:

tab <- tab[[1]] |> html_table()
class(tab)
## [1] "tbl_df"     "tbl"        "data.frame"

We are now much closer to having a usable data table:

tab <- tab |> setNames(c("state", "population", "total", "murder_rate")) 
head(tab)
## # A tibble: 6 × 4
##   state      population total murder_rate
##   <chr>      <chr>      <chr>       <dbl>
## 1 Alabama    4,853,875  348           7.2
## 2 Alaska     737,709    59            8  
## 3 Arizona    6,817,565  309           4.5
## 4 Arkansas   2,977,853  181           6.1
## 5 California 38,993,940 1,861         4.8
## # ℹ 1 more row
…
