Introduction to Data Science - 10 Data visualization in practice
…
Journalists and lobbyists tell dramatic stories. That’s their job. They tell stories about extraordinary events and unusual people. The piles of dramatic stories pile up in peoples’ minds into an over-dramatic worldview and strong negative stress feelings: “The world is getting worse!”, “It’s we vs. them!”, “Other people are strange!”, “The population just keeps growing!” and “Nobody cares!”

Hans Rosling conveyed actual data-based trends in a dramatic way of his own, using effective data visualization. This section is based on two talks that exemplify this approach to education: New Insights on Poverty3 and The Best Stats You’ve Ever Seen4. Specifically, in this section, we use data to attempt to answer the following two questions:

Is it a fair characterization of today’s world to say it is divided into western rich nations and the developing world in Africa, Asia, and Latin America?

Has income inequality across countries worsened during the last 40 years?

To answer these questions, we will be using the gapminder dataset provided in dslabs. This dataset was created using a number of spreadsheets available from the Gapminder Foundation. You can access the table like this:

library(tidyverse)
library(dslabs)
gapminder |> as_tibble()
#> # A tibble: 10,545 × 9
#>   country     year infant_mortality life_expectancy fertility population
#>   <fct>      <int>            <dbl>           <dbl>     <dbl>      <dbl>
#> 1 Albania     1960            115.             62.9      6.19    1636054
#> 2 Algeria     1960            148.             47.5      7.65   11124892
#> 3 Angola      1960            208              36.0      7.32    5270844
#> 4 Antigua a…  1960             NA              63.0      4.43      54681
#> 5 Argentina   1960             59.9            65.4      3.11   20619075
#> # ℹ 10,540 more rows
#> # ℹ 3 more variables: gdp <dbl>, continent <fct>, region <fct>
…
