Introduction to Data Science - 4 The tidyverse
…
In the next section we learn how useful this approach can be when summarizing by group.

4.7.3 Group then summarize with group_by

A common operation in data exploration is to first split data into groups and then compute summaries for each group. For example, we may want to compute the average and standard deviation for men’s and women’s heights separately. The group_by function helps us do this.

If we type this:

heights |> group_by(sex)
#> # A tibble: 1,050 × 2
#> # Groups:   sex [2]
#>   sex   height
#>   <fct>  <dbl>
#> 1 Male      75
#> 2 Male      70
#> 3 Male      68
#> 4 Male      74
#> 5 Male      61
#> # ℹ 1,045 more rows
…
4. Compute the average and standard deviation for females, but for each age group separately rather than a selected decade as in question 1. Note that the age groups are defined by AgeDecade. Hint: rather than filtering by age and gender, filter by Gender and then use group_by.

5. Repeat exercise 4 for males.

6. We can actually combine both summaries for exercises 4 and 5 into one line of code. This is because group_by permits us to group by more than one variable. Obtain one big summary table using group_by(AgeDecade, Gender).

7. For males between the ages of 40-49, compare systolic blood pressure across race as reported in the Race1 variable. Order the resulting table from lowest to highest average systolic blood pressure.

4.11 Tibbles

Tidy data must be stored in data frames. We introduced the data frame in Section Section 2.4.1) and have been using the murders data frame throughout the book. In Section @ref(group-by we introduced the group_by function, which permits stratifying data before computing summary statistics. But where is the group information stored in the data frame?

murders |> group_by(region)
#> # A tibble: 51 × 6
#> # Groups:   region [4]
#>   state      abb   region population total  rate
#>   <chr>      <chr> <fct>       <dbl> <dbl> <dbl>
#> 1 Alabama    AL    South     4779736   135  2.82
#> 2 Alaska     AK    West       710231    19  2.68
#> 3 Arizona    AZ    West      6392017   232  3.63
#> 4 Arkansas   AR    South     2915918    93  3.19
#> 5 California CA    West     37253956  1257  3.37
#> # ℹ 46 more rows
…
